{
    "name":"BCFUG Leveling Up 2: Testing Tools",
    "version":"0.0.1",
    "author":"Dan Card",
    "location":"http://www.purposefultechnologies.com/cbpackages/levelingup1.zip",
    "homepage":"",
    "documentation":"",
    "repository":{
        "type":"",
        "URL":""
    },
    "bugs":"",
    "slug":"bcfugTestingTools",
    "shortDescription":"Part of the Leveling Up Series, this presentation focuses on using testing tools, most notably TestBox and Mockbox in day to day workflow as well as automated processes.",
    "description":"",
    "instructions":"",
    "changelog":"",
    "type":"",
    "keywords":"Dan Card, BCFUG, Testbox, Mockbox, Refactoring",
    "private":false,
    "projectURL":"",
    "license":[
        {
            "type":"",
            "URL":""
        }
    ],
    "contributors":[],
    "dependencies":{
        "testbox":"testbox"
    },
    "devDependencies":{},
    "installPaths":{
        "testbox":"testbox/"
    },
    "scripts":{},
    "ignore":[
        "**/.*",
        "test",
        "tests"
    ],
    "testbox":{
        "runner":[
            {
                "default":""
            }
        ],
        "labels":"",
        "reporter":"",
        "bundles":"",
        "recurse":true,
        "directory":"tests.specs",
        "testBundles":"",
        "testSuites":"",
        "testSpecs":"",
        "verbose":true,
        "watchDelay":500,
        "watchPaths":"**.cfc"
    }
}